<resources>
    <!-- Activity titles -->
    <string name="app_name">Best Movies</string>
    <string name="details_label">Movie Details</string>

    <!-- Menu items -->
    <string name="menu_refresh">Refresh</string>
    <string name="menu_settings">Settings</string>

    <!-- Content descriptions -->
    <string name="movie_poster">Movie Poster</string>
    <string name="movie_backdrop">Movie Backdrop</string>
    <string name="poster"> poster</string>

    <!-- Labels -->
    <string name="best_result_label">Which one is your favourite?</string>
    <string name="original_title_label">Original Title</string>
    <string name="release_date_label">Release Date:</string>
    <string name="ratings_label">Ratings:</string>

    <!-- Error messages -->
    <string name="details_error_message">Movie details not available</string>

    <!-- Json string test -->
    <string name="json">{\"page\":1,\"total_results\":19567,\"total_pages\":979,\"results\":[{\"vote_count\":5776,\"id\":211672,\"video\":false,\"vote_average\":6.4,\"title\":\"Minions\",\"popularity\":529.656971,\"poster_path\":\"\/q0R4crx2SehcEEQEkYObktdeFy.jpg\",\"original_language\":\"en\",\"original_title\":\"Minions\",\"genre_ids\":[10751,16,12,35],\"backdrop_path\":\"\/qLmdjn2fv0FV2Mh4NBzMArdA0Uu.jpg\",\"adult\":false,\"overview\":\"Minions Stuart, Kevin and Bob are recruited by Scarlet Overkill, a super.villain who, alongside her inventor husband Herb, hatches a plot to take over the world.\",\"release_date\":\"2015.06.17\"},{\"vote_count\":7284,\"id\":321612,\"video\":false,\"vote_average\":6.8,\"title\":\"Beauty and the Beast\",\"popularity\":396.166011,\"poster_path\":\"\/tWqifoYuwLETmmasnGHO7xBjEtt.jpg\",\"original_language\":\"en\",\"original_title\":\"Beauty and the Beast\",\"genre_ids\":[10751,14,10749],\"backdrop_path\":\"\/6aUWe0GSl69wMTSWWexsorMIvwU.jpg\",\"adult\":false,\"overview\":\"A live action adaptation of Disney\'s version of the classic tale of a cursed prince and a beautiful young woman who helps him break the spell.\",\"release_date\":\"2017.03.16\"},{\"vote_count\":3280,\"id\":335984,\"video\":false,\"vote_average\":7.4,\"title\":\"Blade Runner 2049\",\"popularity\":340.738246,\"poster_path\":\"\/gajva2L0rPYkEWjzgFlBXCAVBE5.jpg\",\"original_language\":\"en\",\"original_title\":\"Blade Runner 2049\",\"genre_ids\":[9648,878,53],\"backdrop_path\":\"\/mVr0UiqyltcfqxbAUcLl9zWL8ah.jpg\",\"adult\":false,\"overview\":\"Thirty years after the events of the first film, a new blade runner, LAPD Officer K, unearths a long.buried secret that has the potential to plunge what\'s left of society into chaos. K\'s discovery leads him on a quest to find Rick Deckard, a former LAPD blade runner who has been missing for 30 years.\",\"release_date\":\"2017.10.04\"},{\"vote_count\":791,\"id\":284054,\"video\":false,\"vote_average\":7.3,\"title\":\"Black Panther\",\"popularity\":322.738938,\"poster_path\":\"\/bLBUCtMQGJclH36clliPLmljMys.jpg\",\"original_language\":\"en\",\"original_title\":\"Black Panther\",\"genre_ids\":[28,12,14,878],\"backdrop_path\":\"\/b6ZJZHUdMEFECvGiDpJjlfUWela.jpg\",\"adult\":false,\"overview\":\"T\'Challa, after the death of his father, the King of Wakanda, returns home to the isolated, technologically advanced African nation to succeed to the throne and take his rightful place as king.\",\"release_date\":\"2018.02.13\"},{\"vote_count\":6590,\"id\":346364,\"video\":false,\"vote_average\":7.1,\"title\":\"It\",\"popularity\":291.353263,\"poster_path\":\"\/9E2y5Q7WlCVNEhP5GiVTjhEhx1o.jpg\",\"original_language\":\"en\",\"original_title\":\"It\",\"genre_ids\":[18,27,53],\"backdrop_path\":\"\/tcheoA2nPATCm2vvXw2hVQoaEFD.jpg\",\"adult\":false,\"overview\":\"In a small town in Maine, seven children known as The Losers Club come face to face with life problems, bullies and a monster that takes the shape of a clown called Pennywise.\",\"release_date\":\"2017.09.05\"},{\"vote_count\":89,\"id\":441614,\"video\":false,\"vote_average\":5.2,\"title\":\"Loving\",\"popularity\":290.528683,\"poster_path\":\"\/6uOMVZ6oG00xjq0KQiExRBw2s3P.jpg\",\"original_language\":\"es\",\"original_title\":\"Amar\",\"genre_ids\":[10749],\"backdrop_path\":\"\/iBM6zvlOmcfodGhUa36sy7pM2Er.jpg\",\"adult\":false,\"overview\":\"Laura and Carlos love each other as if every day was the last, and perhaps that first love intensity is what will tear them apart a year later.\",\"release_date\":\"2017.04.21\"},{\"vote_count\":248,\"id\":347882,\"video\":false,\"vote_average\":5.2,\"title\":\"Sleight\",\"popularity\":280.275507,\"poster_path\":\"\/wridRvGxDqGldhzAIh3IcZhHT5F.jpg\",\"original_language\":\"en\",\"original_title\":\"Sleight\",\"genre_ids\":[18,53,28,878],\"backdrop_path\":\"\/2SEgJ0mHJ7TSdVDbkGU061tR33K.jpg\",\"adult\":false,\"overview\":\"A young street magician is left to take care of his little sister after his mother\'s passing and turns to drug dealing in the Los Angeles party scene to keep a roof over their heads. When he gets into trouble with his supplier, his sister is kidnapped and he is forced to rely on both his sleight of hand and brilliant mind to save her.\",\"release_date\":\"2017.04.28\"},{\"vote_count\":6948,\"id\":198663,\"video\":false,\"vote_average\":7,\"title\":\"The Maze Runner\",\"popularity\":254.259754,\"poster_path\":\"\/coss7RgL0NH6g4fC2s5atvf3dFO.jpg\",\"original_language\":\"en\",\"original_title\":\"The Maze Runner\",\"genre_ids\":[28,9648,878,53],\"backdrop_path\":\"\/lkOZcsXcOLZYeJ2YxJd3vSldvU4.jpg\",\"adult\":false,\"overview\":\"Set in a post.apocalyptic world, young Thomas is deposited in a community of boys after his memory is erased, soon learning they\'re all trapped in a maze that will require him to join forces with fellow “runners” for a shot at escape.\",\"release_date\":\"2014.09.10\"},{\"vote_count\":124,\"id\":335777,\"video\":false,\"vote_average\":5.8,\"title\":\"The Nut Job 2: Nutty by Nature\",\"popularity\":243.230076,\"poster_path\":\"\/xOfdQHNF9TlrdujyAjiKfUhxSXy.jpg\",\"original_language\":\"en\",\"original_title\":\"The Nut Job 2: Nutty by Nature\",\"genre_ids\":[10751,16,12,35],\"backdrop_path\":\"\/bd1X5nNrrAHVGG0MxsAeCOPPh1w.jpg\",\"adult\":false,\"overview\":\"When the evil mayor of Oakton decides to bulldoze Liberty Park and build a dangerous amusement park in its place, Surly Squirrel and his ragtag group of animal friends need to band together to save their home, defeat the mayor, and take back the park.\",\"release_date\":\"2017.08.11\"},{\"vote_count\":323,\"id\":268531,\"video\":false,\"vote_average\":6.2,\"title\":\"Captain Underpants: The First Epic Movie\",\"popularity\":218.826932,\"poster_path\":\"\/AjHZIkzhPXrRNE4VSLVWx6dirK9.jpg\",\"original_language\":\"en\",\"original_title\":\"Captain Underpants: The First Epic Movie\",\"genre_ids\":[28,16,35,10751],\"backdrop_path\":\"\/4F2np8VZjzNJh0SXvVyG4xph9eO.jpg\",\"adult\":false,\"overview\":\"Two mischievous kids hypnotize their mean elementary school principal and turn him into their comic book creation, the kind.hearted and elastic.banded Captain Underpants.\",\"release_date\":\"2017.06.01\"},{\"vote_count\":6173,\"id\":269149,\"video\":false,\"vote_average\":7.7,\"title\":\"Zootopia\",\"popularity\":211.483621,\"poster_path\":\"\/sM33SANp9z6rXW8Itn7NnG1GOEs.jpg\",\"original_language\":\"en\",\"original_title\":\"Zootopia\",\"genre_ids\":[16,12,10751,35],\"backdrop_path\":\"\/mhdeE1yShHTaDbJVdWyTlzFvNkr.jpg\",\"adult\":false,\"overview\":\"Determined to prove herself, Officer Judy Hopps, the first bunny on Zootopia\'s police force, jumps at the chance to crack her first case . even if it means partnering with scam.artist fox Nick Wilde to solve the mystery.\",\"release_date\":\"2016.02.11\"},{\"vote_count\":442,\"id\":460793,\"video\":false,\"vote_average\":5.9,\"title\":\"Olaf\'s Frozen Adventure\",\"popularity\":209.067709,\"poster_path\":\"\/47pLZ1gr63WaciDfHCpmoiXJlVr.jpg\",\"original_language\":\"en\",\"original_title\":\"Olaf\'s Frozen Adventure\",\"genre_ids\":[12,16,35,10751,14,10402],\"backdrop_path\":\"\/9K4QqQZg4TVXcxBGDiVY4Aey3Rn.jpg\",\"adult\":false,\"overview\":\"Olaf is on a mission to harness the best holiday traditions for Anna, Elsa, and Kristoff.\",\"release_date\":\"2017.10.27\"},{\"vote_count\":3507,\"id\":254128,\"video\":false,\"vote_average\":6,\"title\":\"San Andreas\",\"popularity\":207.063478,\"poster_path\":\"\/qey0tdcOp9kCDdEZuJ87yE3crSe.jpg\",\"original_language\":\"en\",\"original_title\":\"San Andreas\",\"genre_ids\":[28,18,53],\"backdrop_path\":\"\/cUfGqafAVQkatQ7N4y08RNV3bgu.jpg\",\"adult\":false,\"overview\":\"In the aftermath of a massive earthquake in California, a rescue.chopper pilot makes a dangerous journey across the state in order to rescue his estranged daughter.\",\"release_date\":\"2015.05.27\"},{\"vote_count\":2315,\"id\":354912,\"video\":false,\"vote_average\":7.7,\"title\":\"Coco\",\"popularity\":188.781184,\"poster_path\":\"\/eKi8dIrr8voobbaGzDpe8w0PVbC.jpg\",\"original_language\":\"en\",\"original_title\":\"Coco\",\"genre_ids\":[12,16,35,10751],\"backdrop_path\":\"\/askg3SMvhqEl4OL52YuvdtY40Yb.jpg\",\"adult\":false,\"overview\":\"Despite his family’s baffling generations.old ban on music, Miguel dreams of becoming an accomplished musician like his idol, Ernesto de la Cruz. Desperate to prove his talent, Miguel finds himself in the stunning and colorful Land of the Dead following a mysterious chain of events. Along the way, he meets charming trickster Hector, and together, they set off on an extraordinary journey to unlock the real story behind Miguel\'s family history.\",\"release_date\":\"2017.10.27\"},{\"vote_count\":2,\"id\":394823,\"video\":false,\"vote_average\":8,\"title\":\"Robby and Toby\'s Fantastic Voyager\",\"popularity\":183.082475,\"poster_path\":\"\/ssCEE0bfj5gawzwZeGfqrGQtU3f.jpg\",\"original_language\":\"de\",\"original_title\":\"Robbi, Tobbi und das Fliewatüüt\",\"genre_ids\":[12,10751],\"backdrop_path\":\"\/gZF2EfM8ov834pCzRpt1xt01SUy.jpg\",\"adult\":false,\"overview\":\"One day, robot Robby enters into a life of the most creative little boy, Toby. Robby had been separated from his robot parents when his spaceship crashed. Toby decides to offer his help and the two of them become friends.\",\"release_date\":\"2016.12.01\"},{\"vote_count\":492,\"id\":345938,\"video\":false,\"vote_average\":7,\"title\":\"The Shack\",\"popularity\":178.955043,\"poster_path\":\"\/doAzav9kfdtsoSdw1MDFvjKq3J4.jpg\",\"original_language\":\"en\",\"original_title\":\"The Shack\",\"genre_ids\":[18,14],\"backdrop_path\":\"\/un7pVnJC2el8YxdIOg6YrSmBTlO.jpg\",\"adult\":false,\"overview\":\"After suffering a family tragedy, Mack Phillips spirals into a deep depression causing him to question his innermost beliefs. Facing a crisis of faith, he receives a mysterious letter urging him to an abandoned shack deep in the Oregon wilderness. Despite his doubts, Mack journeys to the shack and encounters an enigmatic trio of strangers led by a woman named Papa. Through this meeting, Mack finds important truths that will transform his understanding of his tragedy and change his life forever.\",\"release_date\":\"2017.03.03\"},{\"vote_count\":2977,\"id\":258489,\"video\":false,\"vote_average\":5.6,\"title\":\"The Legend of Tarzan\",\"popularity\":171.878242,\"poster_path\":\"\/6FxOPJ9Ysilpq0IgkrMJ7PubFhq.jpg\",\"original_language\":\"en\",\"original_title\":\"The Legend of Tarzan\",\"genre_ids\":[28,12],\"backdrop_path\":\"\/pWNBPN8ghaKtGLcQBMwNyM32Wbm.jpg\",\"adult\":false,\"overview\":\"Tarzan, having acclimated to life in London, is called back to his former home in the jungle to investigate the activities at a mining encampment.\",\"release_date\":\"2016.06.29\"},{\"vote_count\":2997,\"id\":98566,\"video\":false,\"vote_average\":5.8,\"title\":\"Teenage Mutant Ninja Turtles\",\"popularity\":167.107653,\"poster_path\":\"\/oDL2ryJ0sV2bmjgshVgJb3qzvwp.jpg\",\"original_language\":\"en\",\"original_title\":\"Teenage Mutant Ninja Turtles\",\"genre_ids\":[878,28,12,14,35],\"backdrop_path\":\"\/OqCXGt5nl1cHPeotxCDvXLLe6p.jpg\",\"adult\":false,\"overview\":\"The city needs heroes. Darkness has settled over New York City as Shredder and his evil Foot Clan have an iron grip on everything from the police to the politicians. The future is grim until four unlikely outcast brothers rise from the sewers and discover their destiny as Teenage Mutant Ninja Turtles. The Turtles must work with fearless reporter April and her wise.cracking cameraman Vern Fenwick to save the city and unravel Shredder\'s diabolical plan.\",\"release_date\":\"2014.08.07\"},{\"vote_count\":2176,\"id\":38365,\"video\":false,\"vote_average\":6.1,\"title\":\"Grown Ups\",\"popularity\":159.604697,\"poster_path\":\"\/t6Yj2UlqsrHHK6kJO1FWepR6mEd.jpg\",\"original_language\":\"en\",\"original_title\":\"Grown Ups\",\"genre_ids\":[35],\"backdrop_path\":\"\/q4s8RTQFyLrEn2S8akWGMmc8mYX.jpg\",\"adult\":false,\"overview\":\"After their high school basketball coach passes away, five good friends and former teammates reunite for a Fourth of July holiday weekend.\",\"release_date\":\"2010.06.24\"},{\"vote_count\":5142,\"id\":206647,\"video\":false,\"vote_average\":6.3,\"title\":\"Spectre\",\"popularity\":159.527797,\"poster_path\":\"\/hE24GYddaxB9MVZl1CaiI86M3kp.jpg\",\"original_language\":\"en\",\"original_title\":\"Spectre\",\"genre_ids\":[28,12,80],\"backdrop_path\":\"\/wVTYlkKPKrljJfugXN7UlLNjtuJ.jpg\",\"adult\":false,\"overview\":\"A cryptic message from Bond’s past sends him on a trail to uncover a sinister organization. While M battles political forces to keep the secret service alive, Bond peels back the layers of deceit to reveal the terrible truth behind SPECTRE.\",\"release_date\":\"2015.10.26\"}]}</string>
</resources>